wave.vcd
$date
	Fri Dec 30 16:53:38 2022
$end
$version
	Icarus Verilog
$end
$timescale
	1ps
$end
$scope module Testbench $end
$var reg 1 ! clk $end
$var reg 1 " rst $end
$var integer 32 # cnt [31:0] $end
$scope module mips $end
$var wire 1 ! clk $end
$var wire 1 " rst $end
$var wire 1 $ ctrl_0_Data $end
$var wire 1 % ctrl_0_Ctrl $end
$var wire 1 & RegWrite $end
$var wire 2 ' RegDst [1:0] $end
$var wire 1 ( MemtoReg $end
$var wire 2 ) MemWrite [1:0] $end
$var wire 3 * MemRead [2:0] $end
$var wire 1 + Jump $end
$var wire 1 , JR $end
$var wire 32 - Instruction [31:0] $end
$var wire 1 . ExtOp $end
$var wire 5 / EXCCODE [4:0] $end
$var wire 1 0 ERET $end
$var wire 1 1 DataDst $end
$var wire 4 2 Branch [3:0] $end
$var wire 1 3 ALUSrc $end
$var wire 4 4 ALUOp [3:0] $end
$scope module Controller $end
$var wire 6 5 Funct [5:0] $end
$var wire 6 6 Opcode [31:26] $end
$var wire 5 7 rs [4:0] $end
$var wire 5 8 rt [4:0] $end
$var wire 1 $ Ctrl_0_Data $end
$var wire 1 % Ctrl_0_Ctrl $end
$var reg 4 9 ALUOp [3:0] $end
$var reg 1 3 ALUSrc $end
$var reg 4 : Branch [3:0] $end
$var reg 1 1 DataDst $end
$var reg 1 0 ERET $end
$var reg 5 ; EXCCODE [4:0] $end
$var reg 1 . ExtOp $end
$var reg 1 , JR $end
$var reg 1 + Jump $end
$var reg 3 < MemRead [2:0] $end
$var reg 2 = MemWrite [1:0] $end
$var reg 1 ( MemtoReg $end
$var reg 2 > RegDst [1:0] $end
$var reg 1 & RegWrite $end
$upscope $end
$scope module DataPath $end
$var wire 4 ? ALUOp [3:0] $end
$var wire 1 3 ALUSrc $end
$var wire 4 @ Branch [3:0] $end
$var wire 1 ! Clock $end
$var wire 1 1 DataDst $end
$var wire 1 0 ERET $end
$var wire 5 A EXCCODE [4:0] $end
$var wire 1 . ExtOp $end
$var wire 1 , JR $end
$var wire 1 + Jump $end
$var wire 3 B MemRead [2:0] $end
$var wire 2 C MemWrite [1:0] $end
$var wire 1 ( MemtoReg $end
$var wire 2 D RegDst [1:0] $end
$var wire 1 & RegWrite $end
$var wire 1 " Reset $end
$var wire 1 E overflow $end
$var wire 1 F Zero $end
$var wire 32 G RegfileOut2 [31:0] $end
$var wire 32 H RegfileOut1 [31:0] $end
$var wire 32 I PC_add_4 [31:0] $end
$var wire 1 J PC_Sub_4_Data $end
$var wire 1 K PC_Sub_4_Ctrl $end
$var wire 32 L PC [31:0] $end
$var wire 32 M NPC [31:0] $end
$var wire 32 N MuxRFALUOut [31:0] $end
$var wire 5 O MuxImRFOut [4:0] $end
$var wire 32 P MuxDmOut [31:0] $end
$var wire 1 Q MEM_WB_overflow $end
$var wire 32 R MEM_WB_ins [31:0] $end
$var wire 5 S MEM_WB_Reg_Write_out [4:0] $end
$var wire 1 T MEM_WB_RegWrite_out $end
$var wire 5 U MEM_WB_RegRt_out [4:0] $end
$var wire 32 V MEM_WB_OPC [31:0] $end
$var wire 1 W MEM_WB_MemtoReg_out $end
$var wire 32 X MEM_WB_Mem_Data_out [31:0] $end
$var wire 3 Y MEM_WB_MemRead_out [2:0] $end
$var wire 1 Z MEM_WB_IS_NOP $end
$var wire 5 [ MEM_WB_EXCCODE [4:0] $end
$var wire 32 \ MEM_WB_ALU_Data_out [31:0] $end
$var wire 32 ] Instruction [31:0] $end
$var wire 32 ^ IF_ID_instr_out [31:0] $end
$var wire 32 _ IF_ID_PC_out [31:0] $end
$var wire 32 ` IF_ID_OPC [31:0] $end
$var wire 1 a IF_ID_IS_NOP $end
$var wire 1 b IF_ID_Flush_Data $end
$var wire 1 c IF_ID_Flush_Ctrl $end
$var wire 5 d IF_ID_EXCCODE [4:0] $end
$var wire 5 e ID_EX_shamt [4:0] $end
$var wire 5 f ID_EX_rt_out [4:0] $end
$var wire 5 g ID_EX_rs_out [4:0] $end
$var wire 5 h ID_EX_rd_out [4:0] $end
$var wire 32 i ID_EX_ins [31:0] $end
$var wire 32 j ID_EX_Reg_data_2_out [31:0] $end
$var wire 32 k ID_EX_Reg_data_1_out [31:0] $end
$var wire 1 l ID_EX_RegWrite_out $end
$var wire 2 m ID_EX_RegDst_out [1:0] $end
$var wire 32 n ID_EX_PC_out [31:0] $end
$var wire 32 o ID_EX_OPC [31:0] $end
$var wire 1 p ID_EX_MemtoReg_out $end
$var wire 2 q ID_EX_MemWrite_out [1:0] $end
$var wire 3 r ID_EX_MemRead_out [2:0] $end
$var wire 1 s ID_EX_Jump_out $end
$var wire 26 t ID_EX_Jump_immed_out [25:0] $end
$var wire 1 u ID_EX_IS_NOP $end
$var wire 16 v ID_EX_Ext_out [15:0] $end
$var wire 1 w ID_EX_ExtOp_out $end
$var wire 5 x ID_EX_EXCCODE [4:0] $end
$var wire 1 y ID_EX_DataDst $end
$var wire 4 z ID_EX_Branch_out [3:0] $end
$var wire 1 { ID_EX_ALUSrc_out $end
$var wire 4 | ID_EX_ALUOp_out [3:0] $end
$var wire 2 } ForwardC_Data [1:0] $end
$var wire 32 ~ ForwardB_Rt_Mux [31:0] $end
$var wire 2 !" ForwardB_Data [1:0] $end
$var wire 32 "" ForwardA_Rs_Mux [31:0] $end
$var wire 2 #" ForwardA_Data [1:0] $end
$var wire 1 $" Flag_Branch $end
$var wire 32 %" ExtOut [31:0] $end
$var wire 1 &" EX_MEM_overflow $end
$var wire 32 '" EX_MEM_ins [31:0] $end
$var wire 1 (" EX_MEM_Zero_out $end
$var wire 5 )" EX_MEM_Reg_Write_out [4:0] $end
$var wire 1 *" EX_MEM_RegWrite_out $end
$var wire 5 +" EX_MEM_RegRt_out [4:0] $end
$var wire 32 ," EX_MEM_PC_out [31:0] $end
$var wire 32 -" EX_MEM_OPC [31:0] $end
$var wire 1 ." EX_MEM_MemtoReg_out $end
$var wire 2 /" EX_MEM_MemWrite_out [1:0] $end
$var wire 3 0" EX_MEM_MemRead_out [2:0] $end
$var wire 1 1" EX_MEM_Jump_out $end
$var wire 26 2" EX_MEM_Jump_immed_out [25:0] $end
$var wire 1 3" EX_MEM_IS_NOP $end
$var wire 32 4" EX_MEM_ExtOut_out [31:0] $end
$var wire 5 5" EX_MEM_EXCCODE [4:0] $end
$var wire 32 6" EX_MEM_Data_Write_out [31:0] $end
$var wire 4 7" EX_MEM_Branch_out [3:0] $end
$var wire 32 8" EX_MEM_ALURes_out [31:0] $end
$var wire 32 9" DmOut [31:0] $end
$var wire 32 :" Data_to_reg [31:0] $end
$var wire 1 $ Ctrl_0_Data $end
$var wire 1 % Ctrl_0_Ctrl $end
$var wire 32 ;" Branch_Mux_Rt [31:0] $end
$var wire 32 <" Branch_Mux_Rs [31:0] $end
$var wire 32 =" AluOut [31:0] $end
$var wire 5 >" AluCtrlOut [4:0] $end
$scope module ALU $end
$var wire 1 ! Clock $end
$var wire 1 " Reset $end
$var wire 5 ?" shamt [4:0] $end
$var wire 1 F Zero $end
$var wire 32 @" InputData2 [31:0] $end
$var wire 32 A" InputData1 [31:0] $end
$var wire 5 B" AluCtrlOut [4:0] $end
$var reg 32 C" AluRes [31:0] $end
$var reg 1 E overflow $end
$var reg 33 D" temp [32:0] $end
$upscope $end
$scope module ALU_controller $end
$var wire 6 E" Funct [5:0] $end
$var wire 4 F" ALUOp [3:0] $end
$var reg 5 G" AluCtrlOut [4:0] $end
$upscope $end
$scope module Branch_Mux $end
$var wire 1 ! clk $end
$var wire 32 H" Rt [31:0] $end
$var wire 32 I" Rs [31:0] $end
$var wire 2 J" ForwardC [1:0] $end
$var wire 32 K" EX_MEM_ALURes [31:0] $end
$var reg 32 L" Branch_Rs [31:0] $end
$var reg 32 M" Branch_Rt [31:0] $end
$upscope $end
$scope module DM_OUT_MUX $end
$var wire 1 Q overflow $end
$var wire 1 W MemtoReg $end
$var wire 32 N" DmData [31:0] $end
$var wire 32 O" ALUData [31:0] $end
$var reg 32 P" DstData [31:0] $end
$upscope $end
$scope module Data_MUX $end
$var wire 32 Q" ALURes [31:0] $end
$var wire 32 R" ID_EX_PC_out [31:0] $end
$var wire 1 y DataDst $end
$var reg 32 S" Data_out [31:0] $end
$upscope $end
$scope module EX_MEM_pipeline $end
$var wire 32 T" ALURes_in [31:0] $end
$var wire 1 F Zero_in $end
$var wire 1 ! clk $end
$var wire 1 E overflow_in $end
$var wire 32 U" ins_in [31:0] $end
$var wire 5 V" Reg_Write_in [4:0] $end
$var wire 1 l RegWrite_in $end
$var wire 5 W" RegRt_in [4:0] $end
$var wire 32 X" PC_in [31:0] $end
$var wire 32 Y" OPC_in [31:0] $end
$var wire 1 p MemtoReg_in $end
$var wire 2 Z" MemWrite_in [1:0] $end
$var wire 3 [" MemRead_in [2:0] $end
$var wire 1 s Jump_in $end
$var wire 26 \" Jump_immed_in [25:0] $end
$var wire 1 u ID_EX_IS_NOP $end
$var wire 32 ]" ExtOut_in [31:0] $end
$var wire 5 ^" EXCCODE_in [4:0] $end
$var wire 32 _" Data_Write_in [31:0] $end
$var wire 4 `" Branch_in [3:0] $end
$var reg 32 a" ALURes_out [31:0] $end
$var reg 4 b" Branch_out [3:0] $end
$var reg 32 c" Data_Write_out [31:0] $end
$var reg 5 d" EXCCODE_out [4:0] $end
$var reg 1 3" EX_MEM_IS_NOP $end
$var reg 32 e" ExtOut_out [31:0] $end
$var reg 26 f" Jump_immed_out [25:0] $end
$var reg 1 1" Jump_out $end
$var reg 3 g" MemRead_out [2:0] $end
$var reg 2 h" MemWrite_out [1:0] $end
$var reg 1 ." MemtoReg_out $end
$var reg 32 i" OPC_out [31:0] $end
$var reg 32 j" PC_out [31:0] $end
$var reg 5 k" RegRt_out [4:0] $end
$var reg 1 *" RegWrite_out $end
$var reg 5 l" Reg_Write_out [4:0] $end
$var reg 1 (" Zero_out $end
$var reg 32 m" ins_out [31:0] $end
$var reg 1 &" overflow_out $end
$upscope $end
$scope module ForwardA_Mux $end
$var wire 32 n" ALURes [31:0] $end
$var wire 32 o" Mux_DM [31:0] $end
$var wire 2 p" ForwardA [1:0] $end
$var wire 32 q" Data_rs [31:0] $end
$var reg 32 r" ForwardA_Rs_ALU [31:0] $end
$upscope $end
$scope module ForwardB_Mux $end
$var wire 32 s" ALURes [31:0] $end
$var wire 32 t" Mux_DM [31:0] $end
$var wire 2 u" ForwardB [1:0] $end
$var wire 32 v" Data_rt [31:0] $end
$var reg 32 w" ForwardB_Rt_ALU [31:0] $end
$upscope $end
$scope module ForwardControlHazard $end
$var wire 32 x" ALURes [31:0] $end
$var wire 4 y" Branch [3:0] $end
$var wire 3 z" EX_MEM_MR [2:0] $end
$var wire 5 {" EX_MEM_RegRd [4:0] $end
$var wire 5 |" IF_ID_RegRs [4:0] $end
$var wire 5 }" IF_ID_RegRt [4:0] $end
$var wire 1 , JR $end
$var reg 2 ~" ForwardC [1:0] $end
$upscope $end
$scope module ForwardDataHazard $end
$var wire 1 *" EX_MEM_RW $end
$var wire 5 !# EX_MEM_RegRd [4:0] $end
$var wire 5 "# MEM_WB_RegRd [4:0] $end
$var wire 1 T MEM_WB_RW $end
$var wire 3 ## MEM_WB_MR [2:0] $end
$var wire 5 $# ID_EX_RegRt [4:0] $end
$var wire 5 %# ID_EX_RegRs [4:0] $end
$var reg 2 &# ForwardA [1:0] $end
$var reg 2 '# ForwardB [1:0] $end
$upscope $end
$scope module HazardControl $end
$var wire 3 (# EX_MEM_MR [2:0] $end
$var wire 5 )# EX_MEM_RegRd [4:0] $end
$var wire 5 *# IF_ID_RegRs [4:0] $end
$var wire 5 +# IF_ID_RegRt [4:0] $end
$var wire 6 ,# Opcode [5:0] $end
$var wire 5 -# ID_EX_RegRt [4:0] $end
$var wire 5 .# ID_EX_RegRd [4:0] $end
$var wire 1 l ID_EX_RW $end
$var wire 3 /# ID_EX_MR [2:0] $end
$var reg 1 % Ctrl_0 $end
$var reg 1 c IF_ID_Write_Zero $end
$var reg 1 K PC_Sub_4 $end
$upscope $end
$scope module HazardData $end
$var wire 5 0# IF_ID_RegRs [4:0] $end
$var wire 5 1# IF_ID_RegRt [4:0] $end
$var wire 6 2# Opcode [5:0] $end
$var wire 5 3# MEM_WB_RegRt [4:0] $end
$var wire 3 4# MEM_WB_MR [2:0] $end
$var wire 5 5# ID_EX_RegRt [4:0] $end
$var wire 5 6# ID_EX_RegRs [4:0] $end
$var wire 3 7# ID_EX_MR [2:0] $end
$var reg 1 $ Ctrl_0 $end
$var reg 1 b IF_ID_Write_Zero $end
$var reg 1 J PC_Sub_4 $end
$upscope $end
$scope module ID_EX_pipeline $end
$var wire 4 8# ALUOp_in [3:0] $end
$var wire 1 3 ALUSrc_in $end
$var wire 4 9# Branch_in [3:0] $end
$var wire 1 1 DataDst_in $end
$var wire 5 :# EXCCODE_in [4:0] $end
$var wire 1 . ExtOp_in $end
$var wire 16 ;# Ext_in [15:0] $end
$var wire 26 <# Jump_immed_in [25:0] $end
$var wire 1 + Jump_in $end
$var wire 3 =# MemRead_in [2:0] $end
$var wire 2 ># MemWrite_in [1:0] $end
$var wire 1 ( MemtoReg_in $end
$var wire 2 ?# RegDst_in [1:0] $end
$var wire 1 & RegWrite_in $end
$var wire 1 ! clk $end
$var wire 5 @# rd_in [4:0] $end
$var wire 5 A# rs_in [4:0] $end
$var wire 5 B# rt_in [4:0] $end
$var wire 5 C# shamt_in [4:0] $end
$var wire 32 D# ins_in [31:0] $end
$var wire 32 E# Reg_data_2_in [31:0] $end
$var wire 32 F# Reg_data_1_in [31:0] $end
$var wire 32 G# PC_in [31:0] $end
$var wire 32 H# OPC_in [31:0] $end
$var wire 1 a IF_ID_IS_NOP $end
$var reg 4 I# ALUOp_out [3:0] $end
$var reg 1 { ALUSrc_out $end
$var reg 4 J# Branch_out [3:0] $end
$var reg 1 y DataDst_out $end
$var reg 5 K# EXCCODE_out [4:0] $end
$var reg 1 w ExtOp_out $end
$var reg 16 L# Ext_out [15:0] $end
$var reg 1 u ID_EX_IS_NOP $end
$var reg 26 M# Jump_immed_out [25:0] $end
$var reg 1 s Jump_out $end
$var reg 3 N# MemRead_out [2:0] $end
$var reg 2 O# MemWrite_out [1:0] $end
$var reg 1 p MemtoReg_out $end
$var reg 32 P# OPC_out [31:0] $end
$var reg 32 Q# PC_out [31:0] $end
$var reg 2 R# RegDst_out [1:0] $end
$var reg 1 l RegWrite_out $end
$var reg 32 S# Reg_data_1_out [31:0] $end
$var reg 32 T# Reg_data_2_out [31:0] $end
$var reg 32 U# ins_out [31:0] $end
$var reg 5 V# rd_out [4:0] $end
$var reg 5 W# rs_out [4:0] $end
$var reg 5 X# rt_out [4:0] $end
$var reg 5 Y# shamt_out [4:0] $end
$upscope $end
$scope module IF_ID_pipeline $end
$var wire 1 0 ERET $end
$var wire 5 Z# EXCCODE_in [4:0] $end
$var wire 1 c Flush_Ctrl $end
$var wire 1 b Flush_Data $end
$var wire 1 , JR $end
$var wire 1 ! clk $end
$var wire 32 [# instr_in [31:0] $end
$var wire 32 \# PC_in [31:0] $end
$var wire 32 ]# OPC_in [31:0] $end
$var wire 1 $" Flag_Branch $end
$var reg 5 ^# EXCCODE_out [4:0] $end
$var reg 1 a IF_ID_IS_NOP $end
$var reg 32 _# OPC_out [31:0] $end
$var reg 32 `# PC_out [31:0] $end
$var reg 32 a# instr_out [31:0] $end
$upscope $end
$scope module MEM_WB_pipeline $end
$var wire 32 b# ALU_Data_in [31:0] $end
$var wire 5 c# EXCCODE_in [4:0] $end
$var wire 1 3" EX_MEM_IS_NOP $end
$var wire 3 d# MemRead_in [2:0] $end
$var wire 1 ." MemtoReg_in $end
$var wire 32 e# OPC_in [31:0] $end
$var wire 5 f# RegRt_in [4:0] $end
$var wire 1 *" RegWrite_in $end
$var wire 5 g# Reg_Write_in [4:0] $end
$var wire 1 ! clk $end
$var wire 32 h# ins_in [31:0] $end
$var wire 1 &" overflow_in $end
$var wire 32 i# Mem_Data_in [31:0] $end
$var reg 32 j# ALU_Data_out [31:0] $end
$var reg 5 k# EXCCODE_out [4:0] $end
$var reg 1 Z MEM_WB_IS_NOP $end
$var reg 3 l# MemRead_out [2:0] $end
$var reg 32 m# Mem_Data_out [31:0] $end
$var reg 1 W MemtoReg_out $end
$var reg 32 n# OPC_out [31:0] $end
$var reg 5 o# RegRt_out [4:0] $end
$var reg 1 T RegWrite_out $end
$var reg 5 p# Reg_Write_out [4:0] $end
$var reg 32 q# ins_out [31:0] $end
$var reg 1 Q overflow_out $end
$upscope $end
$scope module RF_ALU_MUX $end
$var wire 1 { ALUSrc $end
$var wire 32 r# rtData [31:0] $end
$var wire 32 s# Immediate [31:0] $end
$var reg 32 t# DstData [31:0] $end
$upscope $end
$scope module RegDst_MUX $end
$var wire 2 u# RegDst [1:0] $end
$var wire 5 v# rd [4:0] $end
$var wire 5 w# rt [4:0] $end
$var reg 5 x# DstReg [4:0] $end
$upscope $end
$scope module branch $end
$var wire 4 y# Branch [3:0] $end
$var wire 26 z# Immediate [25:0] $end
$var wire 32 {# Rs [31:0] $end
$var wire 32 |# Rt [31:0] $end
$var wire 1 ! clk $end
$var reg 1 $" Flag_Branch $end
$upscope $end
$scope module data_memory $end
$var wire 32 }# AluRes [31:0] $end
$var wire 1 ! Clock $end
$var wire 32 ~# InputData [31:0] $end
$var wire 3 !$ MemRead [2:0] $end
$var wire 2 "$ MemWrite [1:0] $end
$var reg 32 #$ DmOutData [31:0] $end
$var reg 32 $$ tmp [31:0] $end
$upscope $end
$scope module extend_immediate $end
$var wire 1 w ExtOp $end
$var wire 16 %$ InputNum [15:0] $end
$var reg 32 &$ OutputNum [31:0] $end
$upscope $end
$scope module instruction_memory $end
$var wire 32 '$ OutInstr [31:0] $end
$var wire 32 ($ PC [31:0] $end
$upscope $end
$scope module next_program_counter $end
$var wire 32 )$ Branch_Mux_Rs [31:0] $end
$var wire 1 0 ERET $end
$var wire 1 $" Flag_Branch $end
$var wire 26 *$ Immediate [25:0] $end
$var wire 1 , JR $end
$var wire 1 + Jump $end
$var wire 1 K PC_Sub_4_Ctrl $end
$var wire 1 J PC_Sub_4_Data $end
$var wire 32 +$ PC_add_4 [31:0] $end
$var reg 32 ,$ EPC [31:0] $end
$var reg 32 -$ NPC [31:0] $end
$var reg 32 .$ PC [31:0] $end
$upscope $end
$scope module program_counter $end
$var wire 1 ! Clock $end
$var wire 26 /$ Immediate [25:0] $end
$var wire 1 + Jump $end
$var wire 32 0$ NPC [31:0] $end
$var wire 1 J PC_Sub_4_Data $end
$var wire 1 " Reset $end
$var reg 32 1$ PC [31:0] $end
$upscope $end
$scope module program_counter_add_4 $end
$var wire 32 2$ PC [31:0] $end
$var reg 32 3$ PC_add_4 [31:0] $end
$upscope $end
$scope module register_files $end
$var wire 1 ! Clock $end
$var wire 5 4$ EXCCODE [4:0] $end
$var wire 32 5$ InputData [31:0] $end
$var wire 1 Z MEM_WB_IS_NOP $end
$var wire 32 6$ OPC [31:0] $end
$var wire 6 7$ Opcode [5:0] $end
$var wire 1 T RegWrite $end
$var wire 1 " Reset $end
$var wire 32 8$ ins [31:0] $end
$var wire 1 Q overflow $end
$var wire 5 9$ rd [4:0] $end
$var wire 5 :$ rs [4:0] $end
$var wire 5 ;$ rt [4:0] $end
$var wire 32 <$ rtData [31:0] $end
$var wire 32 =$ rsData [31:0] $end
$var integer 32 >$ i [31:0] $end
$upscope $end
$upscope $end
$upscope $end
$upscope $end
$enddefinitions $end
#0
$dumpvars
b100000 >$
bx =$
bx <$
bx ;$
bx :$
bx 9$
bx 8$
bx 7$
bx 6$
bx 5$
bx 4$
b11000000000100 3$
b11000000000000 2$
b11000000000000 1$
b11000000000100 0$
bx /$
b11000000000000 .$
b11000000000100 -$
b11000000001100 ,$
b11000000000100 +$
bx *$
bx )$
b11000000000000 ($
b100000000010000001000000000001 '$
bx &$
bx %$
bx $$
bx #$
bx "$
bx !$
bx ~#
bx }#
bx |#
bx {#
bx z#
b0 y#
bx x#
bx w#
bx v#
bx u#
bx t#
bx s#
bx r#
bx q#
bx p#
bx o#
bx n#
bx m#
bx l#
bx k#
bx j#
bx i#
bx h#
bx g#
bx f#
bx e#
bx d#
bx c#
bx b#
bx a#
bx `#
bx _#
bx ^#
b11000000000000 ]#
b11000000000100 \#
b100000000010000001000000000001 [#
b11111 Z#
bx Y#
bx X#
bx W#
bx V#
bx U#
bx T#
bx S#
bx R#
bx Q#
bx P#
bx O#
bx N#
bx M#
bx L#
bx K#
bx J#
bx I#
bx H#
bx G#
bx F#
bx E#
bx D#
bx C#
bx B#
bx A#
bx @#
b1 ?#
b0 >#
b0 =#
bx <#
bx ;#
b11111 :#
b0 9#
b0 8#
bx 7#
bx 6#
bx 5#
bx 4#
bx 3#
bx 2#
bx 1#
bx 0#
bx /#
bx .#
bx -#
bx ,#
bx +#
bx *#
bx )#
bx (#
bx '#
bx &#
bx %#
bx $#
bx ##
bx "#
bx !#
b0 ~"
bx }"
bx |"
bx {"
bx z"
b0 y"
bx x"
bx w"
bx v"
bx u"
bx t"
bx s"
bx r"
bx q"
bx p"
bx o"
bx n"
bx m"
bx l"
bx k"
bx j"
bx i"
bx h"
bx g"
bx f"
bx e"
bx d"
bx c"
bx b"
bx a"
bx `"
bx _"
bx ^"
bx ]"
bx \"
bx ["
bx Z"
bx Y"
bx X"
bx W"
bx V"
bx U"
bx T"
bx S"
bx R"
bx Q"
bx P"
bx O"
bx N"
bx M"
bx L"
bx K"
b0 J"
bx I"
bx H"
bx G"
bx F"
bx E"
bx D"
bx C"
bx B"
bx A"
bx @"
bx ?"
bx >"
bx ="
bx <"
bx ;"
bx :"
bx 9"
bx 8"
bx 7"
bx 6"
bx 5"
bx 4"
x3"
bx 2"
x1"
bx 0"
bx /"
x."
bx -"
bx ,"
bx +"
x*"
bx )"
x("
bx '"
x&"
bx %"
0$"
bx #"
bx ""
bx !"
bx ~
b0 }
bx |
x{
bx z
xy
bx x
xw
bx v
xu
bx t
xs
bx r
bx q
xp
bx o
bx n
bx m
xl
bx k
bx j
bx i
bx h
bx g
bx f
bx e
bx d
0c
0b
xa
bx `
bx _
bx ^
b100000000010000001000000000001 ]
bx \
bx [
xZ
bx Y
bx X
xW
bx V
bx U
xT
bx S
bx R
xQ
bx P
bx O
bx N
b11000000000100 M
b11000000000000 L
0K
0J
b11000000000100 I
bx H
bx G
xF
0E
b1 D
b0 C
b0 B
b11111 A
b0 @
b0 ?
b1 >
b0 =
b0 <
b11111 ;
b0 :
b0 9
bx 8
bx 7
bx 6
bx 5
b0 4
13
b0 2
01
00
b11111 /
1.
bx -
0,
0+
b0 *
b0 )
0(
b1 '
1&
0%
0$
b0 #
1"
0!
$end
#10
0"
#20
b0 ;"
b0 M"
b0 |#
b0 <"
b0 L"
b0 {#
b0 )$
b0 G
b0 H"
b0 E#
b0 <$
b0 H
b0 I"
b0 F#
b0 =$
b11000000001000 M
b11000000001000 -$
b11000000001000 0$
b11000000000100 .$
b0 '
b0 >
b0 D
b0 ?#
b10 4
b10 9
b10 ?
b10 8#
03
b0 /
b0 ;
b0 A
b0 :#
b0 Z#
b10000100010000000000 ]
b10000100010000000000 [#
b10000100010000000000 '$
b11000000001000 I
b11000000001000 \#
b11000000001000 +$
b11000000001000 3$
b1000 +#
b0 *#
b1000 ,#
b1000 }"
b0 |"
b1000 1#
b0 0#
b1000 2#
b0 C#
b0 A#
b10 @#
b1000 B#
b1000000000001 ;#
b10000001000000000001 <#
b10000001000000000001 z#
b1000 ;$
b0 :$
b1000 7$
b10000001000000000001 /$
b10000001000000000001 *$
b1000 8
b0 7
b1 5
b1000 6
b11000000000100 L
b11000000000100 ]#
b11000000000100 ($
b11000000000100 1$
b11000000000100 2$
b11111 d
b11111 ^#
b11000000000000 `
b11000000000000 H#
b11000000000000 _#
0a
b100000000010000001000000000001 -
b100000000010000001000000000001 ^
b100000000010000001000000000001 D#
b100000000010000001000000000001 a#
b11000000000100 _
b11000000000100 G#
b11000000000100 `#
b11111 x
b11111 ^"
b11111 K#
0y
b0 |
b0 F"
b0 I#
1w
1{
b1 m
b1 R#
b1 u#
b0 r
b0 ["
b0 /#
b0 7#
b0 N#
b0 q
b0 Z"
b0 O#
0s
b0 z
b0 `"
b0 J#
1l
0p
0&"
1!
b1 #
#40
0!
b10 #
#60
b1000000000001 :"
b1000000000001 S"
b1000000000001 T"
0F
b1000000000001 ="
b1000000000001 C"
b1000000000001 Q"
b1000000000001 D"
b1000000000001 N
b1000000000001 @"
b1000000000001 t#
b0 ~
b0 _"
b0 w"
b0 r#
b0 ""
b0 A"
b0 r"
b1 E"
b1 '
b1 >
b1 D
b1 ?#
b0 4
b0 9
b0 ?
b0 8#
13
b11000000001100 M
b11000000001100 -$
b11000000001100 0$
b11000000001000 .$
0E
b0 !"
b0 u"
b0 '#
b0 #"
b0 p"
b0 &#
b1000000000001 %"
b1000000000001 ]"
b1000000000001 s#
b1000000000001 &$
b10 >"
b10 B"
b10 G"
b1000 O
b1000 V"
b1000 .#
b1000 x#
b0 ,#
b0 2#
b10000 C#
b1000 @#
b100010000000000 ;#
b10000100010000000000 <#
b10000100010000000000 z#
b0 7$
b10000100010000000000 /$
b10000100010000000000 *$
b0 5
b0 6
b100000000100010000000000000001 ]
b100000000100010000000000000001 [#
b100000000100010000000000000001 '$
b11000000001100 I
b11000000001100 \#
b11000000001100 +$
b11000000001100 3$
0Q
b11111 5"
b11111 d"
b11111 c#
b0 0"
b0 g"
b0 z"
b0 (#
b0 d#
b0 !$
b0 /"
b0 h"
b0 "$
01"
b0 7"
b0 b"
1*"
0."
b100000000010000001000000000001 i
b100000000010000001000000000001 U"
b100000000010000001000000000001 U#
b0 x
b0 ^"
b0 K#
b11000000000000 o
b11000000000000 Y"
b11000000000000 P#
0u
b0 e
b0 ?"
b0 Y#
b0 g
b0 %#
b0 6#
b0 W#
b10 h
b10 V#
b10 v#
b1000 f
b1000 W"
b1000 $#
b1000 -#
b1000 5#
b1000 X#
b1000 w#
b1000000000001 v
b1000000000001 L#
b1000000000001 %$
b0 j
b0 v"
b0 T#
b0 k
b0 q"
b0 S#
b10000001000000000001 t
b10000001000000000001 \"
b10000001000000000001 M#
b11000000000100 n
b11000000000100 R"
b11000000000100 X"
b11000000000100 Q#
b10 |
b10 F"
b10 I#
0{
b0 m
b0 R#
b0 u#
b0 d
b0 ^#
b11000000000100 `
b11000000000100 H#
b11000000000100 _#
b10000100010000000000 -
b10000100010000000000 ^
b10000100010000000000 D#
b10000100010000000000 a#
b11000000001000 _
b11000000001000 G#
b11000000001000 `#
b11000000001000 L
b11000000001000 ]#
b11000000001000 ($
b11000000001000 1$
b11000000001000 2$
1!
b11 #
#80
0!
b100 #
#100
0F
b10000000000010000000000000000 :"
b10000000000010000000000000000 S"
b10000000000010000000000000000 T"
b1000000000001 N
b1000000000001 @"
b1000000000001 t#
b1000000000001 ~
b1000000000001 _"
b1000000000001 w"
b1000000000001 r#
b10000000000010000000000000000 ="
b10000000000010000000000000000 C"
b10000000000010000000000000000 Q"
b1110 >"
b1110 B"
b1110 G"
b11000000010000 M
b11000000010000 -$
b11000000010000 0$
b11000000001100 .$
b0 '
b0 >
b0 D
b0 ?#
b10 4
b10 9
b10 ?
b10 8#
03
b0 E"
b100000000100100000000000000001 ]
b100000000100100000000000000001 [#
b100000000100100000000000000001 '$
b11000000010000 I
b11000000010000 \#
b11000000010000 +$
b11000000010000 3$
b10001 +#
b1000 ,#
b10001 }"
b10001 1#
b1000 2#
b0 C#
b0 @#
b10001 B#
b1 ;#
b100010000000000000001 <#
b100010000000000000001 z#
b10001 ;$
b1000 7$
b100010000000000000001 /$
b100010000000000000001 *$
b10001 8
b1 5
b1000 6
b100010000000000 %"
b100010000000000 ]"
b100010000000000 s#
b100010000000000 &$
b1 $$
b10 !"
b10 u"
b10 '#
b11000000001100 L
b11000000001100 ]#
b11000000001100 ($
b11000000001100 1$
b11000000001100 2$
b11000000001000 `
b11000000001000 H#
b11000000001000 _#
b100000000100010000000000000001 -
b100000000100010000000000000001 ^
b100000000100010000000000000001 D#
b100000000100010000000000000001 a#
b11000000001100 _
b11000000001100 G#
b11000000001100 `#
b10000100010000000000 i
b10000100010000000000 U"
b10000100010000000000 U#
b11000000000100 o
b11000000000100 Y"
b11000000000100 P#
b10000 e
b10000 ?"
b10000 Y#
b1000 h
b1000 V#
b1000 v#
b100010000000000 v
b100010000000000 L#
b100010000000000 %$
b10000100010000000000 t
b10000100010000000000 \"
b10000100010000000000 M#
b11000000001000 n
b11000000001000 R"
b11000000001000 X"
b11000000001000 Q#
b0 |
b0 F"
b0 I#
1{
b1 m
b1 R#
b1 u#
b100000000010000001000000000001 '"
b100000000010000001000000000001 m"
b100000000010000001000000000001 h#
b0 5"
b0 d"
b0 c#
b11000000000000 -"
b11000000000000 i"
b11000000000000 e#
03"
b1000 +"
b1000 k"
b1000 )#
b1000 f#
b1000 )"
b1000 l"
b1000 {"
b1000 !#
b1000 g#
b1000000000001 4"
b1000000000001 e"
b0 6"
b0 c"
b0 ~#
b1000000000001 8"
b1000000000001 K"
b1000000000001 a"
b1000000000001 n"
b1000000000001 s"
b1000000000001 x"
b1000000000001 b#
b1000000000001 }#
0("
b10000001000000000001 2"
b10000001000000000001 f"
b11000000000100 ,"
b11000000000100 j"
b11111 [
b11111 k#
b11111 4$
b0 Y
b0 ##
b0 4#
b0 l#
1T
0W
1!
b101 #
#120
0!
b110 #
